mc20_13TeV.603408.PhPy8EG_PDF4LHC21_HHbbbb_chhhm1p0.deriv.DAOD_PHYS.e8564_e8455_a907_r14859_r14919_p6026
mc20_13TeV.603408.PhPy8EG_PDF4LHC21_HHbbbb_chhhm1p0.deriv.DAOD_PHYS.e8564_e8455_a907_r14860_r14919_p6026
mc20_13TeV.603408.PhPy8EG_PDF4LHC21_HHbbbb_chhhm1p0.deriv.DAOD_PHYS.e8564_e8455_a907_r14861_r14919_p6026

mc20_13TeV.603403.PhPy8EG_PDF4LHC21_HHbbbb_chhh0p0.deriv.DAOD_PHYS.e8564_e8455_a907_r14859_r14919_p6026
mc20_13TeV.603403.PhPy8EG_PDF4LHC21_HHbbbb_chhh0p0.deriv.DAOD_PHYS.e8564_e8455_a907_r14860_r14919_p6026
mc20_13TeV.603403.PhPy8EG_PDF4LHC21_HHbbbb_chhh0p0.deriv.DAOD_PHYS.e8564_e8455_a907_r14861_r14919_p6026

mc20_13TeV.603404.PhPy8EG_PDF4LHC21_HHbbbb_chhh1p0.deriv.DAOD_PHYS.e8564_e8455_a907_r14859_r14919_p6026
mc20_13TeV.603404.PhPy8EG_PDF4LHC21_HHbbbb_chhh1p0.deriv.DAOD_PHYS.e8564_e8455_a907_r14860_r14919_p6026
mc20_13TeV.603404.PhPy8EG_PDF4LHC21_HHbbbb_chhh1p0.deriv.DAOD_PHYS.e8564_e8455_a907_r14861_r14919_p6026


mc20_13TeV.603407.PhPy8EG_PDF4LHC21_HHbbbb_chhh2p5.deriv.DAOD_PHYS.e8564_e8455_a907_r14859_r14919_p6026
mc20_13TeV.603407.PhPy8EG_PDF4LHC21_HHbbbb_chhh2p5.deriv.DAOD_PHYS.e8564_e8455_a907_r14860_r14919_p6026
mc20_13TeV.603407.PhPy8EG_PDF4LHC21_HHbbbb_chhh2p5.deriv.DAOD_PHYS.e8564_e8455_a907_r14861_r14919_p6026

mc20_13TeV.603405.PhPy8EG_PDF4LHC21_HHbbbb_chhh5p0.deriv.DAOD_PHYS.e8564_e8455_a907_r14859_r14919_p6026
mc20_13TeV.603405.PhPy8EG_PDF4LHC21_HHbbbb_chhh5p0.deriv.DAOD_PHYS.e8564_e8455_a907_r14860_r14919_p6026
mc20_13TeV.603405.PhPy8EG_PDF4LHC21_HHbbbb_chhh5p0.deriv.DAOD_PHYS.e8564_e8455_a907_r14861_r14919_p6026

mc20_13TeV.603406.PhPy8EG_PDF4LHC21_HHbbbb_chhh10p0.deriv.DAOD_PHYS.e8564_e8455_a907_r14859_r14919_p6026
mc20_13TeV.603406.PhPy8EG_PDF4LHC21_HHbbbb_chhh10p0.deriv.DAOD_PHYS.e8564_e8455_a907_r14860_r14919_p6026
mc20_13TeV.603406.PhPy8EG_PDF4LHC21_HHbbbb_chhh10p0.deriv.DAOD_PHYS.e8564_e8455_a907_r14861_r14919_p6026