mc20_13TeV.346797.PhH7EG_H7UE_NNLOPS_nnlo_30_ggH125_gamgam.deriv.DAOD_PHYSLITE.e7928_s3681_r13167_p6490
mc20_13TeV.346797.PhH7EG_H7UE_NNLOPS_nnlo_30_ggH125_gamgam.deriv.DAOD_PHYSLITE.e7928_s3681_r13144_p6490
mc20_13TeV.346797.PhH7EG_H7UE_NNLOPS_nnlo_30_ggH125_gamgam.deriv.DAOD_PHYSLITE.e7928_s3681_r13145_p6490
