mc20_13TeV.523072.MGPy8EG_A14NNPDF23LO_ttHH_semilep.deriv.DAOD_PHYSLITE.e8531_a907_r14859_p6490
mc20_13TeV.523072.MGPy8EG_A14NNPDF23LO_ttHH_semilep.deriv.DAOD_PHYSLITE.e8531_a907_r14861_p6490
mc20_13TeV.523072.MGPy8EG_A14NNPDF23LO_ttHH_semilep.deriv.DAOD_PHYSLITE.e8531_a907_r14860_p6490

mc20_13TeV.523073.MGPy8EG_A14NNPDF23LO_ttHH_dilep.deriv.DAOD_PHYSLITE.e8531_a907_r14859_p6490
mc20_13TeV.523073.MGPy8EG_A14NNPDF23LO_ttHH_dilep.deriv.DAOD_PHYSLITE.e8531_a907_r14860_p6490
mc20_13TeV.523073.MGPy8EG_A14NNPDF23LO_ttHH_dilep.deriv.DAOD_PHYSLITE.e8531_a907_r14861_p6490

mc20_13TeV.523074.MGPy8EG_A14NNPDF23LO_ttHH_fullhad.deriv.DAOD_PHYSLITE.e8531_a907_r14859_p6490
mc20_13TeV.523074.MGPy8EG_A14NNPDF23LO_ttHH_fullhad.deriv.DAOD_PHYSLITE.e8531_a907_r14860_p6490
mc20_13TeV.523074.MGPy8EG_A14NNPDF23LO_ttHH_fullhad.deriv.DAOD_PHYSLITE.e8531_a907_r14861_p6490

mc20_13TeV.525963.MGPy8EG_A14NNPDF23LO_ttHH_orth4b_SSML.deriv.DAOD_PHYSLITE.e8531_a907_r14859_p6490
mc20_13TeV.525963.MGPy8EG_A14NNPDF23LO_ttHH_orth4b_SSML.deriv.DAOD_PHYSLITE.e8531_a907_r14861_p6490
mc20_13TeV.525963.MGPy8EG_A14NNPDF23LO_ttHH_orth4b_SSML.deriv.DAOD_PHYSLITE.e8531_a907_r14860_p6490
