mc23_13p6TeV.602635.PhH7EG_PDF4LHC21_ttH125_dilep.deriv.DAOD_PHYS.e8549_s4159_r15224_p6491
mc23_13p6TeV.602635.PhH7EG_PDF4LHC21_ttH125_dilep.deriv.DAOD_PHYS.e8549_s4162_r14622_p6491


mc23_13p6TeV.602636.PhH7EG_PDF4LHC21_ttH125_semilep.deriv.DAOD_PHYS.e8549_s4159_r15224_p6491
mc23_13p6TeV.602636.PhH7EG_PDF4LHC21_ttH125_semilep.deriv.DAOD_PHYS.e8549_s4162_r14622_p6491


mc23_13p6TeV.602637.PhPy8EG_PDF4LHC21_ttH125_dilep.deriv.DAOD_PHYS.e8549_s4159_r15224_p6491
mc23_13p6TeV.602637.PhPy8EG_PDF4LHC21_ttH125_dilep.deriv.DAOD_PHYS.e8549_s4162_r14622_p6491


mc23_13p6TeV.602638.PhPy8EG_PDF4LHC21_ttH125_semilep.deriv.DAOD_PHYS.e8549_s4159_r15224_p6491
mc23_13p6TeV.602638.PhPy8EG_PDF4LHC21_ttH125_semilep.deriv.DAOD_PHYS.e8549_s4162_r14622_p6491

