mc20_13TeV:mc20_13TeV.801347.Py8EG_A14NNPDF23LO_XHS_X600_S300_HyySbb.deriv.DAOD_PHYSLITE.e8531_s3797_r13144_p6266
mc20_13TeV:mc20_13TeV.801347.Py8EG_A14NNPDF23LO_XHS_X600_S300_HyySbb.deriv.DAOD_PHYSLITE.e8531_s3797_r13145_p6266
mc20_13TeV:mc20_13TeV.801347.Py8EG_A14NNPDF23LO_XHS_X600_S300_HyySbb.deriv.DAOD_PHYSLITE.e8531_s3797_r13167_p6266
mc20_13TeV:mc20_13TeV.801366.Py8EG_A14NNPDF23LO_XHS_X750_S110_HyySbb.deriv.DAOD_PHYSLITE.e8531_s3797_r13144_p6266
mc20_13TeV:mc20_13TeV.801366.Py8EG_A14NNPDF23LO_XHS_X750_S110_HyySbb.deriv.DAOD_PHYSLITE.e8531_s3797_r13145_p6266
mc20_13TeV:mc20_13TeV.801366.Py8EG_A14NNPDF23LO_XHS_X750_S110_HyySbb.deriv.DAOD_PHYSLITE.e8531_s3797_r13167_p6266
mc20_13TeV:mc20_13TeV.801941.Py8EG_A14NNPDF23LO_XHS_X900_S600_HyySbb.deriv.DAOD_PHYSLITE.e8531_s3797_r13144_p6266
mc20_13TeV:mc20_13TeV.801941.Py8EG_A14NNPDF23LO_XHS_X900_S600_HyySbb.deriv.DAOD_PHYSLITE.e8531_s3797_r13145_p6266
mc20_13TeV:mc20_13TeV.801941.Py8EG_A14NNPDF23LO_XHS_X900_S600_HyySbb.deriv.DAOD_PHYSLITE.e8531_s3797_r13167_p6266
