mc20_13TeV.503011.MGPy8EG_hh_bbyy_vbf_novhh_l2cvv1cv1.deriv.DAOD_PHYSLITE.e8263_s3681_r13167_p6266
mc20_13TeV.503011.MGPy8EG_hh_bbyy_vbf_novhh_l2cvv1cv1.deriv.DAOD_PHYSLITE.e8263_s3681_r13144_p6266
mc20_13TeV.503011.MGPy8EG_hh_bbyy_vbf_novhh_l2cvv1cv1.deriv.DAOD_PHYSLITE.e8263_s3681_r13145_p6266
