mc23_13p6TeV.701000.Sh_2214_lllljj.deriv.DAOD_PHYSLITE.e8543_s4162_r14622_p6026
mc23_13p6TeV.701000.Sh_2214_lllljj.deriv.DAOD_PHYSLITE.e8543_s4159_r14799_p5855
mc23_13p6TeV.701040.Sh_2214_llll.deriv.DAOD_PHYSLITE.e8543_s4162_r14622_p6026
#mc23_13p6TeV.701040.Sh_2214_llll.recon.AOD.e8543_s4159_r14799 (no daod)
mc23_13p6TeV.701085.Sh_2214_ZqqZll.deriv.DAOD_PHYSLITE.e8543_s4162_r14622_p6026
mc23_13p6TeV.701085.Sh_2214_ZqqZll.deriv.DAOD_PHYSLITE.e8543_s4159_r14799_p6026
