mc20_13TeV:mc20_13TeV.700011.Sh_228_eegamma_pty7_EnhMaxpTVpTy.deriv.DAOD_PHYS.e7947_s3681_r13144_p6026
mc20_13TeV:mc20_13TeV.700011.Sh_228_eegamma_pty7_EnhMaxpTVpTy.deriv.DAOD_PHYS.e7947_s3681_r13145_p6026
mc20_13TeV:mc20_13TeV.700011.Sh_228_eegamma_pty7_EnhMaxpTVpTy.deriv.DAOD_PHYS.e7947_s3681_r13167_p5855
mc20_13TeV:mc20_13TeV.700012.Sh_228_mmgamma_pty7_EnhMaxpTVpTy.deriv.DAOD_PHYS.e7947_s3681_r13144_p6026
mc20_13TeV:mc20_13TeV.700012.Sh_228_mmgamma_pty7_EnhMaxpTVpTy.deriv.DAOD_PHYS.e7947_s3681_r13145_p6026
mc20_13TeV:mc20_13TeV.700012.Sh_228_mmgamma_pty7_EnhMaxpTVpTy.deriv.DAOD_PHYS.e7947_s3681_r13167_p5855
mc20_13TeV:mc20_13TeV.700013.Sh_228_ttgamma_pty7_EnhMaxpTVpTy.deriv.DAOD_PHYS.e7947_s3681_r13144_p6026
mc20_13TeV:mc20_13TeV.700013.Sh_228_ttgamma_pty7_EnhMaxpTVpTy.deriv.DAOD_PHYS.e7947_s3681_r13145_p6026
mc20_13TeV:mc20_13TeV.700013.Sh_228_ttgamma_pty7_EnhMaxpTVpTy.deriv.DAOD_PHYS.e7947_s3681_r13167_p5855
mc20_13TeV:mc20_13TeV.700014.Sh_228_vvgamma_pty7_EnhMaxpTVpTy.deriv.DAOD_PHYS.e7947_s3681_r13144_p6026
mc20_13TeV:mc20_13TeV.700014.Sh_228_vvgamma_pty7_EnhMaxpTVpTy.deriv.DAOD_PHYS.e7947_s3681_r13145_p6026
mc20_13TeV:mc20_13TeV.700014.Sh_228_vvgamma_pty7_EnhMaxpTVpTy.deriv.DAOD_PHYS.e7947_s3681_r13167_p5855
mc20_13TeV:mc20_13TeV.700015.Sh_228_evgamma_pty7_EnhMaxpTVpTy.deriv.DAOD_PHYS.e7947_s3681_r13144_p6026
mc20_13TeV:mc20_13TeV.700015.Sh_228_evgamma_pty7_EnhMaxpTVpTy.deriv.DAOD_PHYS.e7947_s3681_r13145_p6026
mc20_13TeV:mc20_13TeV.700015.Sh_228_evgamma_pty7_EnhMaxpTVpTy.deriv.DAOD_PHYS.e7947_s3681_r13167_p5855
mc20_13TeV:mc20_13TeV.700016.Sh_228_mvgamma_pty7_EnhMaxpTVpTy.deriv.DAOD_PHYS.e7947_s3681_r13144_p6026
mc20_13TeV:mc20_13TeV.700016.Sh_228_mvgamma_pty7_EnhMaxpTVpTy.deriv.DAOD_PHYS.e7947_s3681_r13145_p6026
mc20_13TeV:mc20_13TeV.700016.Sh_228_mvgamma_pty7_EnhMaxpTVpTy.deriv.DAOD_PHYS.e7947_s3681_r13167_p5855
mc20_13TeV:mc20_13TeV.700017.Sh_228_tvgamma_pty7_EnhMaxpTVpTy.deriv.DAOD_PHYS.e7947_s3681_r13144_p6026
mc20_13TeV:mc20_13TeV.700017.Sh_228_tvgamma_pty7_EnhMaxpTVpTy.deriv.DAOD_PHYS.e7947_s3681_r13145_p6026
mc20_13TeV:mc20_13TeV.700017.Sh_228_tvgamma_pty7_EnhMaxpTVpTy.deriv.DAOD_PHYS.e7947_s3681_r13167_p5855
