mc20_13TeV.361603.PowhegPy8EG_CT10nloME_AZNLOCTEQ6L1_ZZllll_mll4.deriv.DAOD_PHYS.e4475_s3681_r13167_p5855
mc20_13TeV.361603.PowhegPy8EG_CT10nloME_AZNLOCTEQ6L1_ZZllll_mll4.deriv.DAOD_PHYS.e4475_s3681_r13144_p5855
mc20_13TeV.361603.PowhegPy8EG_CT10nloME_AZNLOCTEQ6L1_ZZllll_mll4.deriv.DAOD_PHYS.e4475_s3681_r13145_p5855

mc20_13TeV.361604.PowhegPy8EG_CT10nloME_AZNLOCTEQ6L1_ZZvvll_mll4.deriv.DAOD_PHYS.e4475_s3681_r13167_p5855
mc20_13TeV.361604.PowhegPy8EG_CT10nloME_AZNLOCTEQ6L1_ZZvvll_mll4.deriv.DAOD_PHYS.e4475_s3681_r13144_p5855
mc20_13TeV.361604.PowhegPy8EG_CT10nloME_AZNLOCTEQ6L1_ZZvvll_mll4.deriv.DAOD_PHYS.e4475_s3681_r13145_p5855

mc20_13TeV.361601.PowhegPy8EG_CT10nloME_AZNLOCTEQ6L1_WZlvll_mll4.deriv.DAOD_PHYS.e4475_s3681_r13167_p5855
mc20_13TeV.361601.PowhegPy8EG_CT10nloME_AZNLOCTEQ6L1_WZlvll_mll4.deriv.DAOD_PHYS.e4475_s3681_r13144_p5855
mc20_13TeV.361601.PowhegPy8EG_CT10nloME_AZNLOCTEQ6L1_WZlvll_mll4.deriv.DAOD_PHYS.e4475_s3681_r13145_p5855
