#mc20_13TeV.363356.Sherpa_221_NNPDF30NNLO_ZqqZll.deriv.DAOD_PHYS.e5525_s3681_r13144_p602
#mc20_13TeV.363356.Sherpa_221_NNPDF30NNLO_ZqqZll.deriv.DAOD_PHYS.e5525_s3681_r13145_p6026
mc20_13TeV.363356.Sherpa_221_NNPDF30NNLO_ZqqZll.deriv.DAOD_PHYS.e5525_s3681_r13167_p6026

#mc20_13TeV.364250.Sherpa_222_NNPDF30NNLO_llll.deriv.DAOD_PHYS.e5894_s3681_r13144_p6026
#mc20_13TeV.364250.Sherpa_222_NNPDF30NNLO_llll.deriv.DAOD_PHYS.e5894_s3681_r13145_p6026
mc20_13TeV.364250.Sherpa_222_NNPDF30NNLO_llll.deriv.DAOD_PHYS.e5894_s3681_r13167_p6026

#mc20_13TeV.364283.Sherpa_222_NNPDF30NNLO_lllljj_EW6.deriv.DAOD_PHYS.e6055_s3681_r13144_p6026
#mc20_13TeV.364283.Sherpa_222_NNPDF30NNLO_lllljj_EW6.deriv.DAOD_PHYS.e6055_s3681_r13145_p6026
mc20_13TeV.364283.Sherpa_222_NNPDF30NNLO_lllljj_EW6.deriv.DAOD_PHYS.e6055_s3681_r13167_p6026
