mc20_13TeV.600459.PhPy8EG_PDF4LHC15_HHbbttHadHad_cHHH01d0.deriv.DAOD_PHYS.e8273_s3681_r13144_p6026
mc20_13TeV.600459.PhPy8EG_PDF4LHC15_HHbbttHadHad_cHHH01d0.deriv.DAOD_PHYS.e8273_s3681_r13145_p6026
mc20_13TeV.600459.PhPy8EG_PDF4LHC15_HHbbttHadHad_cHHH01d0.deriv.DAOD_PHYS.e8273_s3681_r13167_p6026

mc20_13TeV.600460.PhPy8EG_PDF4LHC15_HHbbttHadHad_cHHH10d0.deriv.DAOD_PHYS.e8273_s3681_r13144_p6026
mc20_13TeV.600460.PhPy8EG_PDF4LHC15_HHbbttHadHad_cHHH10d0.deriv.DAOD_PHYS.e8273_s3681_r13145_p6026
mc20_13TeV.600460.PhPy8EG_PDF4LHC15_HHbbttHadHad_cHHH10d0.deriv.DAOD_PHYS.e8273_s3681_r13167_p6026

mc20_13TeV.600461.PhPy8EG_PDF4LHC15_HHbbttLepHad_cHHH01d0.deriv.DAOD_PHYS.e8273_s3681_r13144_p6026
mc20_13TeV.600461.PhPy8EG_PDF4LHC15_HHbbttLepHad_cHHH01d0.deriv.DAOD_PHYS.e8273_s3681_r13145_p6026
mc20_13TeV.600461.PhPy8EG_PDF4LHC15_HHbbttLepHad_cHHH01d0.deriv.DAOD_PHYS.e8273_s3681_r13167_p6026

mc20_13TeV.600462.PhPy8EG_PDF4LHC15_HHbbttLepHad_cHHH10d0.deriv.DAOD_PHYS.e8273_s3681_r13144_p6026
mc20_13TeV.600462.PhPy8EG_PDF4LHC15_HHbbttLepHad_cHHH10d0.deriv.DAOD_PHYS.e8273_s3681_r13145_p6026
mc20_13TeV.600462.PhPy8EG_PDF4LHC15_HHbbttLepHad_cHHH10d0.deriv.DAOD_PHYS.e8273_s3681_r13167_p6026

mc20_13TeV.502982.MGPy8EG_hh_bbtt_vbf_novhh_hh_l1cvv1cv1.deriv.DAOD_PHYS.e8273_s3681_r13144_p6026
mc20_13TeV.502982.MGPy8EG_hh_bbtt_vbf_novhh_hh_l1cvv1cv1.deriv.DAOD_PHYS.e8273_s3681_r13145_p6026
mc20_13TeV.502982.MGPy8EG_hh_bbtt_vbf_novhh_hh_l1cvv1cv1.deriv.DAOD_PHYS.e8273_s3681_r13167_p6026

mc20_13TeV.502985.MGPy8EG_hh_bbtt_vbf_novhh_hh_l1cvv1p5cv1.deriv.DAOD_PHYS.e8263_s3681_r13144_p6026
mc20_13TeV.502985.MGPy8EG_hh_bbtt_vbf_novhh_hh_l1cvv1p5cv1.deriv.DAOD_PHYS.e8263_s3681_r13145_p6026
mc20_13TeV.502985.MGPy8EG_hh_bbtt_vbf_novhh_hh_l1cvv1p5cv1.deriv.DAOD_PHYS.e8263_s3681_r13167_p6026

mc20_13TeV.502989.MGPy8EG_hh_bbtt_vbf_novhh_hh_l2cvv1cv1.deriv.DAOD_PHYS.e8263_s3681_r13144_p6026
mc20_13TeV.502989.MGPy8EG_hh_bbtt_vbf_novhh_hh_l2cvv1cv1.deriv.DAOD_PHYS.e8263_s3681_r13145_p6026
mc20_13TeV.502989.MGPy8EG_hh_bbtt_vbf_novhh_hh_l2cvv1cv1.deriv.DAOD_PHYS.e8263_s3681_r13167_p6026

mc20_13TeV.502990.MGPy8EG_hh_bbtt_vbf_novhh_hh_l10cvv1cv1.deriv.DAOD_PHYS.e8263_s3681_r13144_p6026
mc20_13TeV.502990.MGPy8EG_hh_bbtt_vbf_novhh_hh_l10cvv1cv1.deriv.DAOD_PHYS.e8263_s3681_r13145_p6026
mc20_13TeV.502990.MGPy8EG_hh_bbtt_vbf_novhh_hh_l10cvv1cv1.deriv.DAOD_PHYS.e8263_s3681_r13167_p6026

mc20_13TeV.502991.MGPy8EG_hh_bbtt_vbf_novhh_hh_l1cvv1cv0p5.deriv.DAOD_PHYS.e8263_s3681_r13145_p6026
mc20_13TeV.502991.MGPy8EG_hh_bbtt_vbf_novhh_hh_l1cvv1cv0p5.deriv.DAOD_PHYS.e8263_s3681_r13167_p6026

mc20_13TeV.508690.MGPy8EG_hh_bbtt_vbf_novhh_hh_l5mcvv1cv0p5.deriv.DAOD_PHYS.e8338_s3681_r13144_p6026
mc20_13TeV.508690.MGPy8EG_hh_bbtt_vbf_novhh_hh_l5mcvv1cv0p5.deriv.DAOD_PHYS.e8338_s3681_r13145_p6026
mc20_13TeV.508690.MGPy8EG_hh_bbtt_vbf_novhh_hh_l5mcvv1cv0p5.deriv.DAOD_PHYS.e8338_s3681_r13167_p6026

mc20_13TeV.502993.MGPy8EG_hh_bbtt_vbf_novhh_lh_l1cvv1cv1.deriv.DAOD_PHYS.e8273_s3681_r13144_p6026
mc20_13TeV.502993.MGPy8EG_hh_bbtt_vbf_novhh_lh_l1cvv1cv1.deriv.DAOD_PHYS.e8273_s3681_r13145_p6026
mc20_13TeV.502993.MGPy8EG_hh_bbtt_vbf_novhh_lh_l1cvv1cv1.deriv.DAOD_PHYS.e8273_s3681_r13167_p6026

mc20_13TeV.502996.MGPy8EG_hh_bbtt_vbf_novhh_lh_l1cvv1p5cv1.deriv.DAOD_PHYS.e8263_s3681_r13144_p6026
mc20_13TeV.502996.MGPy8EG_hh_bbtt_vbf_novhh_lh_l1cvv1p5cv1.deriv.DAOD_PHYS.e8263_s3681_r13145_p6026
mc20_13TeV.502996.MGPy8EG_hh_bbtt_vbf_novhh_lh_l1cvv1p5cv1.deriv.DAOD_PHYS.e8263_s3681_r13167_p6026

mc20_13TeV.503000.MGPy8EG_hh_bbtt_vbf_novhh_lh_l2cvv1cv1.deriv.DAOD_PHYS.e8273_s3681_r13144_p6026
mc20_13TeV.503000.MGPy8EG_hh_bbtt_vbf_novhh_lh_l2cvv1cv1.deriv.DAOD_PHYS.e8273_s3681_r13145_p6026
mc20_13TeV.503000.MGPy8EG_hh_bbtt_vbf_novhh_lh_l2cvv1cv1.deriv.DAOD_PHYS.e8273_s3681_r13167_p6026

mc20_13TeV.503001.MGPy8EG_hh_bbtt_vbf_novhh_lh_l10cvv1cv1.deriv.DAOD_PHYS.e8263_s3681_r13144_p6026
mc20_13TeV.503001.MGPy8EG_hh_bbtt_vbf_novhh_lh_l10cvv1cv1.deriv.DAOD_PHYS.e8263_s3681_r13145_p6026
mc20_13TeV.503001.MGPy8EG_hh_bbtt_vbf_novhh_lh_l10cvv1cv1.deriv.DAOD_PHYS.e8263_s3681_r13167_p6026

mc20_13TeV.503002.MGPy8EG_hh_bbtt_vbf_novhh_lh_l1cvv1cv0p5.deriv.DAOD_PHYS.e8263_s3681_r13144_p6026
mc20_13TeV.503002.MGPy8EG_hh_bbtt_vbf_novhh_lh_l1cvv1cv0p5.deriv.DAOD_PHYS.e8263_s3681_r13145_p6026
mc20_13TeV.503002.MGPy8EG_hh_bbtt_vbf_novhh_lh_l1cvv1cv0p5.deriv.DAOD_PHYS.e8263_s3681_r13167_p6026

mc20_13TeV.508691.MGPy8EG_hh_bbtt_vbf_novhh_lh_l5mcvv1cv0p5.deriv.DAOD_PHYS.e8338_s3681_r13144_p6026
mc20_13TeV.508691.MGPy8EG_hh_bbtt_vbf_novhh_lh_l5mcvv1cv0p5.deriv.DAOD_PHYS.e8338_s3681_r13145_p6026
mc20_13TeV.508691.MGPy8EG_hh_bbtt_vbf_novhh_lh_l5mcvv1cv0p5.deriv.DAOD_PHYS.e8338_s3681_r13167_p6026