# Choose this set of H_ZZ4l, not sure whether this is correct ???
mc20_13TeV.346228.PowhegPy8EG_NNPDF30_AZNLOCTEQ6L1_VBFH125_ZZ4lep_notau.deriv.DAOD_PHYS.e7249_s3681_r13144_p6266
mc20_13TeV.346228.PowhegPy8EG_NNPDF30_AZNLOCTEQ6L1_VBFH125_ZZ4lep_notau.deriv.DAOD_PHYS.e7249_s3681_r13145_p6266
mc20_13TeV.346228.PowhegPy8EG_NNPDF30_AZNLOCTEQ6L1_VBFH125_ZZ4lep_notau.deriv.DAOD_PHYS.e7249_s3681_r13167_p6266

# mc20_13TeV.346696.PhPy8EG_Prophecy_NNPDF30_AZNLOCTEQ6L1_VBFH125_ZZ4lep_notau.deriv.DAOD_PHYS.e7840_s3681_r13144_p6266
# mc20_13TeV.346696.PhPy8EG_Prophecy_NNPDF30_AZNLOCTEQ6L1_VBFH125_ZZ4lep_notau.deriv.DAOD_PHYS.e7840_s3681_r13145_p6266
# mc20_13TeV.346696.PhPy8EG_Prophecy_NNPDF30_AZNLOCTEQ6L1_VBFH125_ZZ4lep_notau.deriv.DAOD_PHYS.e7840_s3681_r13167_p6266

# mc20_13TeV.346702.PhPy8EG_Hto4l_NNPDF30_AZNLOCTEQ6L1_VBFH125_ZZ4lep_notau.deriv.DAOD_PHYS.e7842_s3681_r13144_p6266
# mc20_13TeV.346702.PhPy8EG_Hto4l_NNPDF30_AZNLOCTEQ6L1_VBFH125_ZZ4lep_notau.deriv.DAOD_PHYS.e7842_s3681_r13145_p6266
# mc20_13TeV.346702.PhPy8EG_Hto4l_NNPDF30_AZNLOCTEQ6L1_VBFH125_ZZ4lep_notau.deriv.DAOD_PHYS.e7842_s3681_r13167_p6266

mc20_13TeV.345948.PowhegPy8EG_NNPDF30_AZNLOCTEQ6L1_VBFH125_WWlvlv.deriv.DAOD_PHYS.e7172_s3681_r13144_p6266
mc20_13TeV.345948.PowhegPy8EG_NNPDF30_AZNLOCTEQ6L1_VBFH125_WWlvlv.deriv.DAOD_PHYS.e7172_s3681_r13145_p6266
mc20_13TeV.345948.PowhegPy8EG_NNPDF30_AZNLOCTEQ6L1_VBFH125_WWlvlv.deriv.DAOD_PHYS.e7172_s3681_r13167_p6266

mc20_13TeV.346190.PowhegPy8EG_NNPDF30_AZNLOCTEQ6L1_VBFH125_tautaul13l7.deriv.DAOD_PHYS.e7259_s3681_r13144_p6266
mc20_13TeV.346190.PowhegPy8EG_NNPDF30_AZNLOCTEQ6L1_VBFH125_tautaul13l7.deriv.DAOD_PHYS.e7259_s3681_r13145_p6266
mc20_13TeV.346190.PowhegPy8EG_NNPDF30_AZNLOCTEQ6L1_VBFH125_tautaul13l7.deriv.DAOD_PHYS.e7259_s3681_r13167_p6266

mc20_13TeV.346191.PowhegPy8EG_NNPDF30_AZNLOCTEQ6L1_VBFH125_tautaulm15hp20.deriv.DAOD_PHYS.e7259_s3681_r13144_p6266
mc20_13TeV.346191.PowhegPy8EG_NNPDF30_AZNLOCTEQ6L1_VBFH125_tautaulm15hp20.deriv.DAOD_PHYS.e7259_s3681_r13145_p6266
mc20_13TeV.346191.PowhegPy8EG_NNPDF30_AZNLOCTEQ6L1_VBFH125_tautaulm15hp20.deriv.DAOD_PHYS.e7259_s3681_r13167_p6266

mc20_13TeV.346192.PowhegPy8EG_NNPDF30_AZNLOCTEQ6L1_VBFH125_tautaulp15hm20.deriv.DAOD_PHYS.e7259_s3681_r13144_p6266
mc20_13TeV.346192.PowhegPy8EG_NNPDF30_AZNLOCTEQ6L1_VBFH125_tautaulp15hm20.deriv.DAOD_PHYS.e7259_s3681_r13145_p6266
mc20_13TeV.346192.PowhegPy8EG_NNPDF30_AZNLOCTEQ6L1_VBFH125_tautaulp15hm20.deriv.DAOD_PHYS.e7259_s3681_r13167_p6266

mc20_13TeV.346193.PowhegPy8EG_NNPDF30_AZNLOCTEQ6L1_VBFH125_tautauh30h20.deriv.DAOD_PHYS.e7259_s3681_r13144_p6266
mc20_13TeV.346193.PowhegPy8EG_NNPDF30_AZNLOCTEQ6L1_VBFH125_tautauh30h20.deriv.DAOD_PHYS.e7259_s3681_r13145_p6266
mc20_13TeV.346193.PowhegPy8EG_NNPDF30_AZNLOCTEQ6L1_VBFH125_tautauh30h20.deriv.DAOD_PHYS.e7259_s3681_r13167_p6266

# no VBFH125_mumu sample with p6266