mc20_13TeV.800923.Py8EG_A14NNPDF23LO_XHS_X250_S015_HyySbb.deriv.DAOD_PHYS.e8531_s3797_r13144_p6266
mc20_13TeV.800923.Py8EG_A14NNPDF23LO_XHS_X250_S015_HyySbb.deriv.DAOD_PHYS.e8531_s3797_r13145_p6266
mc20_13TeV.800923.Py8EG_A14NNPDF23LO_XHS_X250_S015_HyySbb.deriv.DAOD_PHYS.e8531_s3797_r13167_p6266
mc20_13TeV.801359.Py8EG_A14NNPDF23LO_XHS_X1000_S70_HyySbb.deriv.DAOD_PHYS.e8531_s3797_r13144_p6266
mc20_13TeV.801359.Py8EG_A14NNPDF23LO_XHS_X1000_S70_HyySbb.deriv.DAOD_PHYS.e8531_s3797_r13145_p6266
mc20_13TeV.801359.Py8EG_A14NNPDF23LO_XHS_X1000_S70_HyySbb.deriv.DAOD_PHYS.e8531_s3797_r13167_p6266
mc20_13TeV.802147.Py8EG_A14NNPDF23LO_XHS_X575_S50_HyySbb.deriv.DAOD_PHYS.e8531_s3797_r13144_p6266
mc20_13TeV.802147.Py8EG_A14NNPDF23LO_XHS_X575_S50_HyySbb.deriv.DAOD_PHYS.e8531_s3797_r13145_p6266
mc20_13TeV.802147.Py8EG_A14NNPDF23LO_XHS_X575_S50_HyySbb.deriv.DAOD_PHYS.e8531_s3797_r13167_p6266
