mc23_13p6TeV.801359.Py8EG_A14NNPDF23LO_XHS_X1000_S70_HyySbb.deriv.DAOD_PHYS.e8557_a911_r15530_p6266
mc23_13p6TeV.801359.Py8EG_A14NNPDF23LO_XHS_X1000_S70_HyySbb.deriv.DAOD_PHYS.e8557_a910_r15540_p6266
mc23_13p6TeV.800914.Py8EG_A14NNPDF23LO_XHS_X190_S015_HyySbb.deriv.DAOD_PHYS.e8557_a911_r15530_p6266
mc23_13p6TeV.800914.Py8EG_A14NNPDF23LO_XHS_X190_S015_HyySbb.deriv.DAOD_PHYS.e8557_a910_r15540_p6266
mc23_13p6TeV.800918.Py8EG_A14NNPDF23LO_XHS_X210_S015_HyySbb.deriv.DAOD_PHYS.e8557_a911_r15530_p6266
mc23_13p6TeV.800918.Py8EG_A14NNPDF23LO_XHS_X210_S015_HyySbb.deriv.DAOD_PHYS.e8557_a910_r15540_p6266
mc23_13p6TeV.800921.Py8EG_A14NNPDF23LO_XHS_X230_S015_HyySbb.deriv.DAOD_PHYS.e8557_a911_r15530_p6266
mc23_13p6TeV.800921.Py8EG_A14NNPDF23LO_XHS_X230_S015_HyySbb.deriv.DAOD_PHYS.e8557_a910_r15540_p6266
mc23_13p6TeV.800923.Py8EG_A14NNPDF23LO_XHS_X250_S015_HyySbb.deriv.DAOD_PHYS.e8557_a911_r15530_p6266
mc23_13p6TeV.800923.Py8EG_A14NNPDF23LO_XHS_X250_S015_HyySbb.deriv.DAOD_PHYS.e8557_a910_r15540_p6266
mc23_13p6TeV.801353.Py8EG_A14NNPDF23LO_XHS_X400_S30_HyySbb.deriv.DAOD_PHYS.e8557_a911_r15530_p6266
mc23_13p6TeV.801353.Py8EG_A14NNPDF23LO_XHS_X400_S30_HyySbb.deriv.DAOD_PHYS.e8557_a910_r15540_p6266
mc23_13p6TeV.801354.Py8EG_A14NNPDF23LO_XHS_X500_S30_HyySbb.deriv.DAOD_PHYS.e8557_a911_r15530_p6266
mc23_13p6TeV.801354.Py8EG_A14NNPDF23LO_XHS_X500_S30_HyySbb.deriv.DAOD_PHYS.e8557_a910_r15540_p6266
mc23_13p6TeV.801939.Py8EG_A14NNPDF23LO_XHS_X600_S40_HyySbb.deriv.DAOD_PHYS.e8557_a911_r15530_p6266
mc23_13p6TeV.801939.Py8EG_A14NNPDF23LO_XHS_X600_S40_HyySbb.deriv.DAOD_PHYS.e8557_a910_r15540_p6266
mc23_13p6TeV.801940.Py8EG_A14NNPDF23LO_XHS_X750_S50_HyySbb.deriv.DAOD_PHYS.e8557_a911_r15530_p6266
mc23_13p6TeV.801940.Py8EG_A14NNPDF23LO_XHS_X750_S50_HyySbb.deriv.DAOD_PHYS.e8557_a910_r15540_p6266
mc23_13p6TeV.802123.Py8EG_A14NNPDF23LO_XHS_X350_S30_HyySbb.deriv.DAOD_PHYS.e8557_a911_r15530_p6266
mc23_13p6TeV.802123.Py8EG_A14NNPDF23LO_XHS_X350_S30_HyySbb.deriv.DAOD_PHYS.e8557_a910_r15540_p6266
mc23_13p6TeV.802126.Py8EG_A14NNPDF23LO_XHS_X375_S30_HyySbb.deriv.DAOD_PHYS.e8557_a911_r15530_p6266
mc23_13p6TeV.802126.Py8EG_A14NNPDF23LO_XHS_X375_S30_HyySbb.deriv.DAOD_PHYS.e8557_a910_r15540_p6266
mc23_13p6TeV.802130.Py8EG_A14NNPDF23LO_XHS_X425_S30_HyySbb.deriv.DAOD_PHYS.e8557_a911_r15530_p6266
mc23_13p6TeV.802130.Py8EG_A14NNPDF23LO_XHS_X425_S30_HyySbb.deriv.DAOD_PHYS.e8557_a910_r15540_p6266
mc23_13p6TeV.802133.Py8EG_A14NNPDF23LO_XHS_X450_S30_HyySbb.deriv.DAOD_PHYS.e8557_a911_r15530_p6266
mc23_13p6TeV.802133.Py8EG_A14NNPDF23LO_XHS_X450_S30_HyySbb.deriv.DAOD_PHYS.e8557_a910_r15540_p6266
mc23_13p6TeV.802136.Py8EG_A14NNPDF23LO_XHS_X475_S30_HyySbb.deriv.DAOD_PHYS.e8557_a911_r15530_p6266
mc23_13p6TeV.802136.Py8EG_A14NNPDF23LO_XHS_X475_S30_HyySbb.deriv.DAOD_PHYS.e8557_a910_r15540_p6266
mc23_13p6TeV.802140.Py8EG_A14NNPDF23LO_XHS_X525_S40_HyySbb.deriv.DAOD_PHYS.e8557_a911_r15530_p6266
mc23_13p6TeV.802140.Py8EG_A14NNPDF23LO_XHS_X525_S40_HyySbb.deriv.DAOD_PHYS.e8557_a910_r15540_p6266
mc23_13p6TeV.802143.Py8EG_A14NNPDF23LO_XHS_X550_S40_HyySbb.deriv.DAOD_PHYS.e8557_a911_r15530_p6266
mc23_13p6TeV.802143.Py8EG_A14NNPDF23LO_XHS_X550_S40_HyySbb.deriv.DAOD_PHYS.e8557_a910_r15540_p6266
mc23_13p6TeV.802146.Py8EG_A14NNPDF23LO_XHS_X575_S40_HyySbb.deriv.DAOD_PHYS.e8557_a911_r15530_p6266
mc23_13p6TeV.802146.Py8EG_A14NNPDF23LO_XHS_X575_S40_HyySbb.deriv.DAOD_PHYS.e8557_a910_r15540_p6266
mc23_13p6TeV.802147.Py8EG_A14NNPDF23LO_XHS_X575_S50_HyySbb.deriv.DAOD_PHYS.e8557_a911_r15530_p6266
mc23_13p6TeV.802147.Py8EG_A14NNPDF23LO_XHS_X575_S50_HyySbb.deriv.DAOD_PHYS.e8557_a910_r15540_p6266
mc23_13p6TeV.802149.Py8EG_A14NNPDF23LO_XHS_X600_S50_HyySbb.deriv.DAOD_PHYS.e8557_a911_r15530_p6266
mc23_13p6TeV.802149.Py8EG_A14NNPDF23LO_XHS_X600_S50_HyySbb.deriv.DAOD_PHYS.e8557_a910_r15540_p6266
mc23_13p6TeV.802150.Py8EG_A14NNPDF23LO_XHS_X650_S50_HyySbb.deriv.DAOD_PHYS.e8557_a911_r15530_p6266
mc23_13p6TeV.802150.Py8EG_A14NNPDF23LO_XHS_X650_S50_HyySbb.deriv.DAOD_PHYS.e8557_a910_r15540_p6266
mc23_13p6TeV.802153.Py8EG_A14NNPDF23LO_XHS_X700_S50_HyySbb.deriv.DAOD_PHYS.e8557_a911_r15530_p6266
mc23_13p6TeV.802153.Py8EG_A14NNPDF23LO_XHS_X700_S50_HyySbb.deriv.DAOD_PHYS.e8557_a910_r15540_p6266
mc23_13p6TeV.802156.Py8EG_A14NNPDF23LO_XHS_X800_S70_HyySbb.deriv.DAOD_PHYS.e8557_a911_r15530_p6266
mc23_13p6TeV.802156.Py8EG_A14NNPDF23LO_XHS_X800_S70_HyySbb.deriv.DAOD_PHYS.e8557_a910_r15540_p6266
mc23_13p6TeV.802157.Py8EG_A14NNPDF23LO_XHS_X850_S70_HyySbb.deriv.DAOD_PHYS.e8557_a911_r15530_p6266
mc23_13p6TeV.802157.Py8EG_A14NNPDF23LO_XHS_X850_S70_HyySbb.deriv.DAOD_PHYS.e8557_a910_r15540_p6266
mc23_13p6TeV.802158.Py8EG_A14NNPDF23LO_XHS_X900_S70_HyySbb.deriv.DAOD_PHYS.e8557_a911_r15530_p6266
mc23_13p6TeV.802158.Py8EG_A14NNPDF23LO_XHS_X900_S70_HyySbb.deriv.DAOD_PHYS.e8557_a910_r15540_p6266
mc23_13p6TeV.802159.Py8EG_A14NNPDF23LO_XHS_X950_S70_HyySbb.deriv.DAOD_PHYS.e8557_a911_r15530_p6266
mc23_13p6TeV.802159.Py8EG_A14NNPDF23LO_XHS_X950_S70_HyySbb.deriv.DAOD_PHYS.e8557_a910_r15540_p6266
mc23_13p6TeV.802162.Py8EG_A14NNPDF23LO_XHS_X200_S15_HyySbb.deriv.DAOD_PHYS.e8557_a911_r15530_p6266
mc23_13p6TeV.802162.Py8EG_A14NNPDF23LO_XHS_X200_S15_HyySbb.deriv.DAOD_PHYS.e8557_a910_r15540_p6266
mc23_13p6TeV.802163.Py8EG_A14NNPDF23LO_XHS_X220_S15_HyySbb.deriv.DAOD_PHYS.e8557_a911_r15530_p6266
mc23_13p6TeV.802163.Py8EG_A14NNPDF23LO_XHS_X220_S15_HyySbb.deriv.DAOD_PHYS.e8557_a910_r15540_p6266
mc23_13p6TeV.802164.Py8EG_A14NNPDF23LO_XHS_X240_S15_HyySbb.deriv.DAOD_PHYS.e8557_a911_r15530_p6266
mc23_13p6TeV.802164.Py8EG_A14NNPDF23LO_XHS_X240_S15_HyySbb.deriv.DAOD_PHYS.e8557_a910_r15540_p6266