mc23_13p6TeV.603558.PhPy8EG_PDF4LHC21_HHbbyy_chhh0p0.deriv.DAOD_PHYS.e8564_a934_r16083_p6522
mc23_13p6TeV.603560.PhPy8EG_PDF4LHC21_HHbbyy_chhh5p0.deriv.DAOD_PHYS.e8564_a934_r16083_p6522
mc23_13p6TeV.603695.PhPy8EG_PDF4LHC21_HHbbyy_chhh2p5.deriv.DAOD_PHYS.e8564_a934_r16083_p6522
mc23_13p6TeV.603696.PhPy8EG_PDF4LHC21_HHbbyy_chhh10p0.deriv.DAOD_PHYS.e8564_a934_r16083_p6522
mc23_13p6TeV.603697.PhPy8EG_PDF4LHC21_HHbbyy_chhhm1p0.deriv.DAOD_PHYS.e8564_a934_r16083_p6522
