mc23_13p6TeV.601796.PhPy8EG_AZNLO_VBFH125_mA0p4_prompt.deriv.DAOD_LLP1.e8526_s4111_r14622_p6368
mc23_13p6TeV.601799.PhPy8EG_AZNLO_VBFH125_mA2p0_prompt.deriv.DAOD_LLP1.e8526_s4111_r14622_p6368
mc23_13p6TeV.601802.PhPy8EG_AZNLO_VBFH125_mA9p0_prompt.deriv.DAOD_LLP1.e8526_s4111_r14622_p6368
mc23_13p6TeV.601805.PhPy8EG_AZNLO_ggH125_mA0p4_prompt.deriv.DAOD_LLP1.e8526_s4111_r14622_p6368
mc23_13p6TeV.601808.PhPy8EG_AZNLO_ggH125_mA2p0_prompt.deriv.DAOD_LLP1.e8526_s4111_r14622_p6368
mc23_13p6TeV.601811.PhPy8EG_AZNLO_ggH125_mA9p0_prompt.deriv.DAOD_LLP1.e8526_s4111_r14622_p6368
